<?xml version="1.0" encoding="utf-8"?>
<!-- Generator: Adobe Illustrator 15.0.0, SVG Export Plug-In . SVG Version: 6.00 Build 0)  -->
<!DOCTYPE svg PUBLIC "-//W3C//DTD SVG 1.1//EN" "http://www.w3.org/Graphics/SVG/1.1/DTD/svg11.dtd">
<svg version="1.1" id="Layer_1" xmlns="http://www.w3.org/2000/svg" xmlns:xlink="http://www.w3.org/1999/xlink" x="0px" y="0px"
	 width="52.127px" height="18.241px" viewBox="0 0 52.127 18.241" enable-background="new 0 0 52.127 18.241" xml:space="preserve">
<g>
	<path fill="#7C7C7C" d="M47.713,18.241c-0.3,0-0.604-0.03-0.909-0.095L26.063,9.808L5.323,18.146
		c-2.387,0.5-4.729-1.031-5.228-3.419s1.031-4.729,3.419-5.229l22.549-8.717l22.549,8.717c2.388,0.5,3.919,2.841,3.419,5.229
		C51.597,16.811,49.76,18.241,47.713,18.241z"/>
</g>
</svg>
