<?xml version="1.0" encoding="utf-8"?>
<!-- Generator: Adobe Illustrator 15.0.0, SVG Export Plug-In . SVG Version: 6.00 Build 0)  -->
<!DOCTYPE svg PUBLIC "-//W3C//DTD SVG 1.1//EN" "http://www.w3.org/Graphics/SVG/1.1/DTD/svg11.dtd">
<svg version="1.1" id="slim" xmlns="http://www.w3.org/2000/svg" xmlns:xlink="http://www.w3.org/1999/xlink" x="0px" y="0px"
	 width="22px" height="20px" viewBox="3 0 22 20" enable-background="new 3 0 22 20" xml:space="preserve">
<path fill="#EC1C24" d="M23.615,0c-1.321,0.683-2.873,0.683-4.195,0h-0.03c-0.701,0.434-1.495,0.703-2.345,0.703h-0.138
	c-0.843,0-1.628-0.266-2.324-0.691c-0.459,0.155-0.968,0.242-1.529,0.242c-0.577,0-1.1-0.091-1.569-0.254H3l1.051,1.949
	c1.291,0.892,2.168,2.424,2.25,4.161c0.004,0.007,0.007,0.015,0.01,0.021C6.5,6.285,6.68,6.446,6.836,6.615
	C7.57,7.412,8.027,8.453,8.18,9.559c0.433,0.787,0.861,1.572,1.27,2.314c0.396,0.727,0.803,1.467,1.207,2.207
	c0.822,0.729,1.348,1.762,1.572,2.879c0.103,0.188,0.205,0.375,0.307,0.562L13.886,20l1.349-2.479
	c0.102-0.186,0.207-0.371,0.309-0.557c0.232-1.082,0.747-2.076,1.543-2.791c0.23-0.703,0.592-1.35,1.079-1.879
	c0.339-0.6,0.678-1.205,1.014-1.793c1.479-2.587,3.006-5.262,4.454-7.955L25,0H23.615z M16.491,8.759
	c-0.855,1.501-1.734,3.038-2.598,4.583c-0.587-1.076-1.174-2.146-1.749-3.195l-0.066-0.119c-1.189-2.174-2.409-4.4-3.623-6.638
	H19.53C18.529,5.19,17.504,6.986,16.491,8.759z"/>
</svg>
